-------------------------------------------------------------------------------
Test set: com.zhm.albums.PhotoAppApiAlbums.AlbumsApplicationTests
-------------------------------------------------------------------------------
Tests run: 1, Failures: 0, Errors: 0, Skipped: 0, Time elapsed: 16.386 s - in com.zhm.albums.PhotoAppApiAlbums.AlbumsApplicationTests
