D:\Programming\java\spring-cloud\album\src\main\java\com\zhm\albums\dto\AlbumCreateDTO.java
D:\Programming\java\spring-cloud\album\src\main\java\com\zhm\albums\service\AlbumsService.java
D:\Programming\java\spring-cloud\album\src\main\java\com\zhm\albums\security\SecurityConfig.java
D:\Programming\java\spring-cloud\album\src\main\java\com\zhm\albums\data\Album.java
D:\Programming\java\spring-cloud\album\src\main\java\com\zhm\albums\dto\AlbumResponseDTO.java
D:\Programming\java\spring-cloud\album\src\main\java\com\zhm\albums\repo\AlbumRepository.java
D:\Programming\java\spring-cloud\album\src\main\java\com\zhm\albums\mapper\AlbumMapper.java
D:\Programming\java\spring-cloud\album\src\main\java\com\zhm\albums\AlbumsApplication.java
D:\Programming\java\spring-cloud\album\src\main\java\com\zhm\albums\controller\AlbumsController.java
